{
  "images" : [
    {
      "idiom" : "universal",
      "scale" : "1x",
      "filename" : "img.jpg"
    },
    {
      "idiom" : "universal",
      "scale" : "2x",
      "filename" : "img-1.jpg"
    },
    {
      "idiom" : "universal",
      "scale" : "3x",
      "filename" : "img-2.jpg"
    }
  ],
  "info" : {
    "version" : 1,
    "author" : "xcode"
  }
}